…
```r
# cleaning bad column nanes
train <- clean_names(train)
train
```

```
## # A tibble: 22,083 × 45
##    patient_id patient_age genes_in_mothers_side inherited_from_fa… maternal_gene
##    <chr>            <dbl> <chr>                 <chr>              <chr>        
##  1 PID0x6418            2 Yes                   No                 Yes          
##  2 PID0x25d5            4 Yes                   Yes                No           
##  3 PID0x4a82            6 Yes                   No                 No           
##  4 PID0x4ac8           12 Yes                   No                 Yes          
##  5 PID0x1bf7           11 Yes                   No                 <NA>         
##  6 PID0x44fe           14 Yes                   No                 Yes          
##  7 PID0x28de            3 Yes                   No                 Yes          
##  8 PID0x4f8f            3 No                    No                 Yes          
##  9 PID0x8ce3           11 No                    No                 Yes          
## 10 PID0x8660            4 No                    Yes                Yes          
## # … with 22,073 more rows, and 40 more variables: paternal_gene <chr>,
## #   blood_cell_count_mc_l <dbl>, patient_first_name <chr>, family_name <chr>,
## #   fathers_name <chr>, mothers_age <dbl>, fathers_age <dbl>,
## #   institute_name <chr>, location_of_institute <chr>, status <chr>,
## #   respiratory_rate_breaths_min <chr>, heart_rate_rates_min <chr>,
## #   test_1 <dbl>, test_2 <dbl>, test_3 <dbl>, test_4 <dbl>, test_5 <dbl>,
## #   parental_consent <chr>, follow_up <chr>, gender <chr>, …
```
…
```r
gender_subclass <- train_1 %>% 
  filter(!is.na(gender)&!is.na(disorder_subclass)) %>% 
  group_by(gender) %>% 
  count(disorder_subclass)
gender_subclass
```

```
## # A tibble: 27 × 3
## # Groups:   gender [3]
##    gender    disorder_subclass                       n
##    <chr>     <chr>                               <int>
##  1 Ambiguous Alzheimer's                            46
##  2 Ambiguous Cancer                                 33
##  3 Ambiguous Cystic fibrosis                      1062
##  4 Ambiguous Diabetes                              586
##  5 Ambiguous Hemochromatosis                       388
##  6 Ambiguous Leber's hereditary optic neuropathy   202
##  7 Ambiguous Leigh syndrome                       1547
##  8 Ambiguous Mitochondrial myopathy               1315
##  9 Ambiguous Tay-Sachs                             865
## 10 Female    Alzheimer's                            55
## # … with 17 more rows
```
…
```r
gender_subclass <- gender_subclass %>% 
  group_by(disorder_subclass) %>% 
  mutate(max=max(n),min=min(n)) %>% 
  mutate(max_scaled=n/max,min_scaled=n/min)

gender_subclass
```

```
## # A tibble: 27 × 7
## # Groups:   disorder_subclass [9]
##    gender    disorder_subclass               n   max   min max_scaled min_scaled
##    <chr>     <chr>                       <int> <int> <int>      <dbl>      <dbl>
##  1 Ambiguous Alzheimer's                    46    55    38      0.836       1.21
##  2 Ambiguous Cancer                         33    33    29      1           1.14
##  3 Ambiguous Cystic fibrosis              1062  1062  1005      1           1.06
##  4 Ambiguous Diabetes                      586   586   522      1           1.12
##  5 Ambiguous Hemochromatosis               388   430   388      0.902       1   
##  6 Ambiguous Leber's hereditary optic n…   202   205   190      0.985       1.06
##  7 Ambiguous Leigh syndrome               1547  1594  1512      0.971       1.02
##  8 Ambiguous Mitochondrial myopathy       1315  1392  1288      0.945       1.02
##  9 Ambiguous Tay-Sachs                     865   865   835      1           1.04
## 10 Female    Alzheimer's                    55    55    38      1           1.45
## # … with 17 more rows
```
…
```r
train_1 %>% 
  group_by(genes_in_mothers_side,inherited_from_father,maternal_gene,paternal_gene) %>% 
  count(disorder_subclass)
```

```
## # A tibble: 312 × 6
## # Groups:   genes_in_mothers_side, inherited_from_father, maternal_gene,
## #   paternal_gene [36]
##    genes_in_mothers_side inherited_from_father maternal_gene paternal_gene
##    <chr>                 <chr>                 <chr>         <chr>        
##  1 No                    No                    No            No           
##  2 No                    No                    No            No           
##  3 No                    No                    No            No           
##  4 No                    No                    No            No           
##  5 No                    No                    No            No           
##  6 No                    No                    No            No           
##  7 No                    No                    No            No           
##  8 No                    No                    No            No           
##  9 No                    No                    No            No           
## 10 No                    No                    No            Yes          
## # … with 302 more rows, and 2 more variables: disorder_subclass <chr>, n <int>
```
…
`

```r
train_1
```

```
## # A tibble: 22,083 × 31
##    patient_age genes_in_mothers_si… inherited_from_… maternal_gene paternal_gene
##          <dbl> <chr>                <chr>            <chr>         <chr>        
##  1           2 Yes                  No               Yes           No           
##  2           4 Yes                  Yes              No            No           
##  3           6 Yes                  No               No            No           
##  4          12 Yes                  No               Yes           No           
##  5          11 Yes                  No               <NA>          Yes          
##  6          14 Yes                  No               Yes           No           
##  7           3 Yes                  No               Yes           Yes          
##  8           3 No                   No               Yes           Yes          
##  9          11 No                   No               Yes           No           
## 10           4 No                   Yes              Yes           Yes          
## # … with 22,073 more rows, and 26 more variables: blood_cell_count_mc_l <dbl>,
## #   mothers_age <dbl>, fathers_age <dbl>, institute_name <chr>,
## #   location_of_institute <chr>, status <chr>,
## #   respiratory_rate_breaths_min <chr>, heart_rate_rates_min <chr>,
## #   parental_consent <chr>, follow_up <chr>, gender <chr>,
## #   birth_asphyxia <chr>, autopsy_shows_birth_defect_if_applicable <chr>,
## #   place_of_birth <chr>, folic_acid_details_peri_conceptional <chr>, …
```


```r
train_1
```

```
## # A tibble: 22,083 × 31
##    patient_age genes_in_mothers_si… inherited_from_… maternal_gene paternal_gene
##          <dbl> <chr>                <chr>            <chr>         <chr>        
##  1           2 Yes                  No               Yes           No           
##  2           4 Yes                  Yes              No            No           
##  3           6 Yes                  No               No            No           
##  4          12 Yes                  No               Yes           No           
##  5          11 Yes                  No               <NA>          Yes          
##  6          14 Yes                  No               Yes           No           
##  7           3 Yes                  No               Yes           Yes          
##  8           3 No                   No               Yes           Yes          
##  9          11 No                   No               Yes           No           
## 10           4 No                   Yes              Yes           Yes          
## # … with 22,073 more rows, and 26 more variables: blood_cell_count_mc_l <dbl>,
## #   mothers_age <dbl>, fathers_age <dbl>, institute_name <chr>,
## #   location_of_institute <chr>, status <chr>,
## #   respiratory_rate_breaths_min <chr>, heart_rate_rates_min <chr>,
## #   parental_consent <chr>, follow_up <chr>, gender <chr>,
## #   birth_asphyxia <chr>, autopsy_shows_birth_defect_if_applicable <chr>,
## #   place_of_birth <chr>, folic_acid_details_peri_conceptional <chr>, …
```
…
```
## `summarise()` has grouped output by 'loc_lat', 'loc_long'. You can override
## using the `.groups` argument.
```

```r
location_map
```

```
## # A tibble: 25 × 4
## # Groups:   loc_lat, loc_long [25]
##    loc_lat loc_long h_o_substance_abuse dot_size
##      <dbl>    <dbl> <chr>                  <int>
##  1    42.3    -71.1 Yes                      100
##  2    42.3    -71.2 Yes                       83
##  3    42.3    -71.1 Yes                      100
##  4    42.3    -71.1 Yes                      105
##  5    42.3    -71.1 Yes                       90
##  6    42.3    -71.1 Yes                      104
##  7    42.3    -71.1 Yes                       98
##  8    42.3    -71.1 Yes                       88
##  9    42.3    -71.1 Yes                      104
## 10    42.3    -71.1 Yes                      166
## # … with 15 more rows
```
…
